…
## Llamar de datos

Aquí hicimos vamos a hacer trampa. El paquete *fivethirtyeight* es el repositorio de la revista del mismo nombre que dirige el Profesor Nate Silver. Este paquete contiene muchas de las bases usadas para los artículos de la revista. Así que una vez que invocamos la biblioteca *fivethityeight* basta nombrar las bases para usarlas. Sólo para divertirnos usaremos la base `biopics` que le sirve a la autora Hannah Fingerhut para argumentar que la película biográfica *Straight Outta Compton* es una rareza por tratarse de una película sobre personas afroamericanas.

Además, podemos guardar esta tabla en un objeto para manipularlo con mayo facilidad.


```r
biopics
```

```
## # A tibble: 761 x 14
##    title site  country year_release box_office director number_of_subje~ subject
##    <chr> <chr> <chr>          <int>      <dbl> <chr>               <int> <chr>  
##  1 10 R~ tt00~ UK              1971         NA Richard~                1 John C~
##  2 12 Y~ tt20~ US/UK           2013   56700000 Steve M~                1 Solomo~
##  3 127 ~ tt15~ US/UK           2010   18300000 Danny B~                1 Aron R~
##  4 1987  tt28~ Canada          2014         NA Ricardo~                1 Ricard~
##  5 20 D~ tt01~ US              1998     537000 Myles B~                1 Myles ~
##  6 21    tt04~ US              2008   81200000 Robert ~                1 Jeff Ma
##  7 24 H~ tt02~ UK              2002    1130000 Michael~                1 Tony W~
##  8 42    tt04~ US              2013   95000000 Brian H~                1 Jackie~
##  9 8 Se~ tt01~ US              1994   19600000 John G.~                1 Lane F~
## 10 84 C~ tt00~ US/UK           1987    1080000 David H~                2 Frank ~
## # ... with 751 more rows, and 6 more variables: type_of_subject <chr>,
## #   race_known <chr>, subject_race <chr>, person_of_color <lgl>,
## #   subject_sex <chr>, lead_actor_actress <chr>
```
…
