…
```r
comsoc.19
```

```
## # A tibble: 12,340 x 27
##    ...1  ...2  ...3  `SECRETARÍA DE ~ ...5  ...6  ...7  ...8  ...9  ...10 ...11 ...12 ...13 ...14 ...15 ...16 ...17 ...18
##    <chr> <chr> <chr> <chr>            <chr> <chr> <chr> <chr> <chr> <chr> <chr> <chr> <chr> <chr> <chr> <chr> <chr> <chr>
##  1 <NA>  <NA>   <NA> Todos los monto~ <NA>  <NA>  <NA>  <NA>  <NA>  <NA>  <NA>  <NA>  <NA>  <NA>  <NA>  <NA>  <NA>  <NA> 
##  2 <NA>  <NA>   <NA> PERÍODO: ENERO ~ <NA>  <NA>  <NA>  <NA>  <NA>  <NA>  <NA>  <NA>  <NA>  <NA>  <NA>  <NA>  <NA>  <NA> 
##  3 <NA>  CS066 "Con~ <NA>             <NA>  <NA>  <NA>  <NA>  <NA>  <NA>  <NA>  <NA>  <NA>  <NA>  <NA>  <NA>  <NA>  <NA> 
##  4 <NA>  <NA>  "Fec~ <NA>             <NA>  <NA>  <NA>  <NA>  <NA>  <NA>  <NA>  <NA>  <NA>  <NA>  <NA>  <NA>  <NA>  <NA> 
##  5 Sect~ Tipo~ "Ent~ Nombre           Mes   Fech~ Part~ Póli~ Cons. No. ~ Fech~ Prod~ Desc~ Impo~ IVA   Pers~ Clas~ Bene~
##  6 0     E     "625" INSTITUTO NACIO~ 12    43830 36101 14331 1     DAOP~ 43691 37    INTE~ 5807~ 9291~ M     P     LA J~
##  7 0     E     "625" INSTITUTO NACIO~ 12    43830 36101 14331 1     DAOP~ 43691 37    INTE~ <NA>  <NA>  M     P     LA J~
##  8 0     E     "625" INSTITUTO NACIO~ 12    43830 36101 14331 0     DAOP~ 43691 21    DIAR~ 1018~ 16296 M     P     LA J~
##  9 0     E     "625" INSTITUTO NACIO~ 12    43830 36101 14331 0     DAOP~ 43691 21    DIAR~ <NA>  <NA>  M     P     LA J~
## 10 0     E     "625" INSTITUTO NACIO~ 12    43830 36101 14410 10    DAOP~ 43691 22    DIAR~ 1197~ 1916~ M     P     MEDI~
## # ... with 12,330 more rows, and 9 more variables: ...19 <chr>, ...20 <chr>, ...21 <chr>, ...22 <chr>, ...23 <chr>,
## #   ...24 <chr>, ...25 <chr>, ...26 <chr>, ...27 <chr>
```
…
Tercero, y como el tiempo apremia, podemos filtrar aquellas observaciones que tienen espacio vacío en *Costo*. Esta estrategia es útil, pero falta un paso. Como el excel


```r
comsoc.19.limpio <- comsoc.19 %>% 
  filter(!is.na(Costo)) %>% 
  filter(Sector != "Sector") 

comsoc.19.limpio
```

```
## # A tibble: 7,625 x 27
##    Sector `Tipo Instituci~ Entidad Nombre Mes   `Fecha de gasto` Partida Póliza Cons. `No. de Contrat~ `Fecha de Contr~
##    <chr>  <chr>            <chr>   <chr>  <chr> <chr>            <chr>   <chr>  <chr> <chr>            <chr>           
##  1 0      E                625     INSTI~ 12    43830            36101   14331  1     DAOP-031-22-2019 43691           
##  2 0      E                625     INSTI~ 12    43830            36101   14331  0     DAOP-031-22-2019 43691           
##  3 0      E                625     INSTI~ 12    43830            36101   14410  10    DAOP-031-36-2019 43691           
##  4 0      E                625     INSTI~ 12    43830            36101   14410  0     DAOP-031-26-2019 43691           
##  5 0      E                625     INSTI~ 12    43830            36101   14410  1     DAOP-031-26-200~ 43691           
##  6 0      E                625     INSTI~ 12    43830            36101   14410  2     DAOP-031-26-2019 43691           
##  7 0      E                625     INSTI~ 12    43830            36101   14410  3     DAOP-031-26-2019 43691           
##  8 0      E                625     INSTI~ 12    43830            36101   14410  4     DAOP-031-26-2019 43691           
##  9 0      E                625     INSTI~ 12    43830            36101   14410  5     SAOP-031-26-2019 43691           
## 10 0      E                625     INSTI~ 12    43830            36101   14410  6     DAOP-031-26-2019 43691           
## # ... with 7,615 more rows, and 16 more variables: Producto <chr>, `Descripción Producto` <chr>, Importe <chr>,
## #   IVA <chr>, `Persona (F/M)` <chr>, `Clase de Beneficiario` <chr>, Beneficiario <chr>, Campaña <chr>,
## #   Intercambio <chr>, `Unidad de medida` <chr>, `Descripción Unidad` <chr>, Cantidad <chr>, `Costo Unitario` <chr>,
## #   Costo <chr>, `IVA del Costo` <chr>, `Notas aclaratorias` <chr>
```
…
```r
comsoc.19.limpio %>% 
  mutate(Costo = as.numeric(Costo)) %>% 
  arrange(-Costo)
```

```
## # A tibble: 7,625 x 27
##    Sector `Tipo Instituci~ Entidad Nombre Mes   `Fecha de gasto` Partida Póliza Cons. `No. de Contrat~ `Fecha de Contr~
##    <chr>  <chr>            <chr>   <chr>  <chr> <chr>            <chr>   <chr>  <chr> <chr>            <chr>           
##  1 0      E                641     INSTI~ 12    43775            36101   PO037~ 3     UCSA190922020010 43698           
##  2 4      D                4000    SECRE~ 12    43861            36101   30024~ 0     <NA>             <NA>            
##  3 4      D                4000    SECRE~ 12    43861            36101   30024~ 0     <NA>             <NA>            
##  4 0      E                641     INSTI~ 12    43817            36101   PO038~ 1     UCSA190922020009 43698           
##  5 4      D                4000    SECRE~ 12    43878            36101   30026~ 0     <NA>             <NA>            
##  6 0      E                641     INSTI~ 12    43811            36101   PO038~ 12    UCSA190922020009 43698           
##  7 4      D                4000    SECRE~ 12    43881            36101   30026~ 0     <NA>             <NA>            
##  8 0      E                641     INSTI~ 11    43734            36101   PO037~ 2     UCSA190922020010 43698           
##  9 0      E                641     INSTI~ 12    43810            36101   PO038~ 0     UCSA190922020010 43698           
## 10 4      D                4000    SECRE~ 12    43878            36101   30026~ 0     <NA>             <NA>            
## # ... with 7,615 more rows, and 16 more variables: Producto <chr>, `Descripción Producto` <chr>, Importe <chr>,
## #   IVA <chr>, `Persona (F/M)` <chr>, `Clase de Beneficiario` <chr>, Beneficiario <chr>, Campaña <chr>,
## #   Intercambio <chr>, `Unidad de medida` <chr>, `Descripción Unidad` <chr>, Cantidad <chr>, `Costo Unitario` <chr>,
## #   Costo <dbl>, `IVA del Costo` <chr>, `Notas aclaratorias` <chr>
```
